[gd_scene load_steps=2 format=2]

[ext_resource path="res://uvpacker/UVPack.gd" type="Script" id=1]

[node name="uvpacker" type="Control"]
script = ExtResource( 1 )

[node name="ColorRect" type="ColorRect" parent="."]
modulate = Color( 0.9, 0.7461, 0.09, 0.7 )
rect_min_size = Vector2( 18, 16 )

[node name="ColorRect2" type="ColorRect" parent="."]
modulate = Color( 0.9, 0.46908, 0.09, 0.7 )
margin_left = 18.0
margin_right = 18.0
rect_min_size = Vector2( 13, 20 )

[node name="ColorRect3" type="ColorRect" parent="."]
modulate = Color( 0.9, 0.3816, 0.09, 0.7 )
margin_top = 16.0
margin_bottom = 16.0
rect_min_size = Vector2( 9, 18 )

[node name="ColorRect4" type="ColorRect" parent="."]
modulate = Color( 0.09, 0.9, 0.414, 0.7 )
margin_left = 9.0
margin_top = 20.0
margin_right = 9.0
margin_bottom = 20.0
rect_min_size = Vector2( 20, 6 )

[node name="ColorRect5" type="ColorRect" parent="."]
modulate = Color( 0.9, 0.304863, 0.09, 0.7 )
margin_left = 31.0
margin_right = 31.0
rect_min_size = Vector2( 7, 19 )

[node name="ColorRect6" type="ColorRect" parent="."]
modulate = Color( 0.210343, 0.9, 0.09, 0.7 )
margin_left = 9.0
margin_top = 26.0
margin_right = 9.0
margin_bottom = 26.0
rect_min_size = Vector2( 18, 7 )

[node name="ColorRect7" type="ColorRect" parent="."]
modulate = Color( 0.9, 0.779236, 0.09, 0.7 )
margin_left = 27.0
margin_top = 26.0
margin_right = 27.0
margin_bottom = 26.0
rect_min_size = Vector2( 13, 11 )

[node name="ColorRect8" type="ColorRect" parent="."]
modulate = Color( 0.9, 0.2844, 0.09, 0.7 )
margin_left = 38.0
margin_right = 38.0
rect_min_size = Vector2( 6, 18 )

[node name="ColorRect9" type="ColorRect" parent="."]
modulate = Color( 0.09, 0.9, 0.2196, 0.7 )
margin_left = 9.0
margin_top = 33.0
margin_right = 9.0
margin_bottom = 33.0
rect_min_size = Vector2( 18, 6 )

[node name="ColorRect10" type="ColorRect" parent="."]
modulate = Color( 0.09, 0.5598, 0.9, 0.7 )
margin_top = 39.0
margin_bottom = 39.0
rect_min_size = Vector2( 19, 4 )

[node name="ColorRect11" type="ColorRect" parent="."]
modulate = Color( 0.6165, 0.9, 0.09, 0.7 )
margin_left = 27.0
margin_top = 37.0
margin_right = 27.0
margin_bottom = 37.0
rect_min_size = Vector2( 15, 8 )

[node name="ColorRect12" type="ColorRect" parent="."]
modulate = Color( 0.9, 0.252, 0.09, 0.7 )
margin_left = 42.0
margin_top = 18.0
margin_right = 42.0
margin_bottom = 18.0
rect_min_size = Vector2( 5, 18 )

[node name="ColorRect13" type="ColorRect" parent="."]
modulate = Color( 0.9, 0.182084, 0.09, 0.7 )
margin_left = 47.0
margin_right = 47.0
rect_min_size = Vector2( 3, 19 )

[node name="ColorRect14" type="ColorRect" parent="."]
modulate = Color( 0.6894, 0.9, 0.09, 0.7 )
margin_top = 43.0
margin_bottom = 43.0
rect_min_size = Vector2( 14, 8 )

[node name="ColorRect15" type="ColorRect" parent="."]
modulate = Color( 0.9, 0.3087, 0.09, 0.7 )
margin_left = 42.0
margin_top = 36.0
margin_right = 42.0
margin_bottom = 36.0
rect_min_size = Vector2( 6, 16 )

[node name="ColorRect16" type="ColorRect" parent="."]
modulate = Color( 0.9, 0.423257, 0.09, 0.7 )
margin_left = 19.0
margin_top = 39.0
margin_right = 19.0
margin_bottom = 39.0
rect_min_size = Vector2( 8, 14 )

[node name="ColorRect17" type="ColorRect" parent="."]
modulate = Color( 0.3492, 0.09, 0.9, 0.7 )
margin_top = 51.0
margin_bottom = 51.0
rect_min_size = Vector2( 18, 3 )

[node name="ColorRect18" type="ColorRect" parent="."]
modulate = Color( 0.252, 0.9, 0.09, 0.7 )
margin_left = 27.0
margin_top = 45.0
margin_right = 27.0
margin_bottom = 45.0
rect_min_size = Vector2( 15, 6 )

[node name="ColorRect19" type="ColorRect" parent="."]
modulate = Color( 0.9, 0.5274, 0.09, 0.7 )
margin_left = 47.0
margin_top = 19.0
margin_right = 47.0
margin_bottom = 19.0
rect_min_size = Vector2( 9, 12 )

[node name="ColorRect20" type="ColorRect" parent="."]
modulate = Color( 0.3492, 0.9, 0.09, 0.7 )
margin_left = 27.0
margin_top = 51.0
margin_right = 27.0
margin_bottom = 51.0
rect_min_size = Vector2( 14, 6 )

[node name="ColorRect21" type="ColorRect" parent="."]
modulate = Color( 0.9, 0.567164, 0.09, 0.7 )
margin_left = 248.0
margin_right = 248.0
rect_min_size = Vector2( 9, 11 )

[node name="ColorRect22" type="ColorRect" parent="."]
modulate = Color( 0.1548, 0.09, 0.9, 0.7 )
margin_left = 257.0
margin_right = 257.0
rect_min_size = Vector2( 17, 3 )

[node name="ColorRect23" type="ColorRect" parent="."]
modulate = Color( 0.9, 0.55656, 0.09, 0.7 )
margin_left = 274.0
margin_right = 274.0
rect_min_size = Vector2( 8, 10 )

[node name="ColorRect24" type="ColorRect" parent="."]
modulate = Color( 0.9, 0.461127, 0.09, 0.7 )
margin_left = 282.0
margin_right = 282.0
rect_min_size = Vector2( 7, 11 )

[node name="ColorRect25" type="ColorRect" parent="."]
modulate = Color( 0.9, 0.6084, 0.09, 0.7 )
margin_left = 289.0
margin_right = 289.0
rect_min_size = Vector2( 8, 9 )

[node name="ColorRect26" type="ColorRect" parent="."]
modulate = Color( 0.9, 0.49824, 0.09, 0.7 )
margin_left = 297.0
margin_right = 297.0
rect_min_size = Vector2( 7, 10 )

[node name="ColorRect27" type="ColorRect" parent="."]
modulate = Color( 0.9, 0.408109, 0.09, 0.7 )
margin_left = 304.0
margin_right = 304.0
rect_min_size = Vector2( 6, 11 )

[node name="ColorRect28" type="ColorRect" parent="."]
modulate = Color( 0.9, 0.4788, 0.09, 0.7 )
margin_left = 310.0
margin_right = 310.0
rect_min_size = Vector2( 6, 9 )

[node name="ColorRect29" type="ColorRect" parent="."]
modulate = Color( 0.5436, 0.9, 0.09, 0.7 )
margin_left = 316.0
margin_right = 316.0
rect_min_size = Vector2( 10, 5 )

[node name="ColorRect30" type="ColorRect" parent="."]
modulate = Color( 0.252, 0.9, 0.09, 0.7 )
margin_left = 326.0
margin_right = 326.0
rect_min_size = Vector2( 10, 4 )

[node name="ColorRect31" type="ColorRect" parent="."]
modulate = Color( 0.9, 0.249055, 0.09, 0.7 )
margin_left = 336.0
margin_right = 336.0
rect_min_size = Vector2( 3, 11 )

[node name="ColorRect32" type="ColorRect" parent="."]
modulate = Color( 0.09, 0.6084, 0.9, 0.7 )
margin_left = 339.0
margin_right = 339.0
rect_min_size = Vector2( 13, 1 )

[node name="ColorRect33" type="ColorRect" parent="."]
modulate = Color( 0.9, 0.26496, 0.09, 0.7 )
margin_left = 352.0
margin_right = 352.0
rect_min_size = Vector2( 3, 10 )

[node name="ColorRect34" type="ColorRect" parent="."]
modulate = Color( 0.9, 0.3492, 0.09, 0.7 )
margin_left = 355.0
margin_right = 355.0
rect_min_size = Vector2( 4, 9 )

[node name="ColorRect35" type="ColorRect" parent="."]
modulate = Color( 0.738, 0.9, 0.09, 0.7 )
margin_left = 359.0
margin_right = 359.0
rect_min_size = Vector2( 10, 1 )

[node name="ColorRect36" type="ColorRect" parent="."]
modulate = Color( 0.9, 0.2358, 0.09, 0.7 )
margin_left = 369.0
margin_right = 369.0
rect_min_size = Vector2( 2, 8 )

[node name="ColorRect37" type="ColorRect" parent="."]
modulate = Color( 0.9, 0.339943, 0.09, 0.7 )
margin_left = 371.0
margin_right = 371.0
rect_min_size = Vector2( 3, 7 )

[node name="ColorRect38" type="ColorRect" parent="."]
modulate = Color( 0.9, 0.4788, 0.09, 0.7 )
margin_left = 374.0
margin_right = 374.0
rect_min_size = Vector2( 9, 1 )

[node name="ColorRect39" type="ColorRect" parent="."]
modulate = Color( 0.738, 0.9, 0.09, 0.7 )
margin_left = 383.0
margin_right = 383.0
rect_min_size = Vector2( 5, 3 )

[node name="ColorRect40" type="ColorRect" parent="."]
modulate = Color( 0.9, 0.2844, 0.09, 0.7 )
margin_left = 388.0
margin_right = 388.0
rect_min_size = Vector2( 1, 3 )

[node name="ColorRect41" type="ColorRect" parent="."]
modulate = Color( 0.77, 0.77, 0.77, 0.7 )
margin_left = 9.0
margin_top = 16.0
margin_right = 9.0
margin_bottom = 16.0
rect_min_size = Vector2( 9, 4 )

[node name="ColorRect42" type="ColorRect" parent="."]
modulate = Color( 0.54, 0.54, 0.54, 0.7 )
margin_left = 29.0
margin_top = 20.0
margin_right = 29.0
margin_bottom = 20.0
rect_min_size = Vector2( 2, 6 )

[node name="ColorRect43" type="ColorRect" parent="."]
modulate = Color( 0.716, 0.716, 0.716, 0.7 )
margin_top = 34.0
margin_bottom = 34.0
rect_min_size = Vector2( 9, 5 )

[node name="ColorRect44" type="ColorRect" parent="."]
modulate = Color( 0.98, 0.98, 0.98, 0.7 )
margin_left = 38.0
margin_top = 18.0
margin_right = 38.0
margin_bottom = 18.0
rect_min_size = Vector2( 4, 1 )

[node name="ColorRect45" type="ColorRect" parent="."]
modulate = Color( 0.82, 0.82, 0.82, 0.7 )
margin_left = 31.0
margin_top = 19.0
margin_right = 31.0
margin_bottom = 19.0
rect_min_size = Vector2( 11, 1 )

[node name="ColorRect46" type="ColorRect" parent="."]
modulate = Color( 0.524, 0.524, 0.524, 0.7 )
margin_left = 40.0
margin_top = 26.0
margin_right = 40.0
margin_bottom = 26.0
rect_min_size = Vector2( 2, 10 )

[node name="ColorRect47" type="ColorRect" parent="."]
modulate = Color( 0.52, 0.52, 0.52, 0.7 )
margin_left = 44.0
margin_right = 44.0
rect_min_size = Vector2( 3, 18 )

[node name="ColorRect48" type="ColorRect" parent="."]
modulate = Color( 0.56, 0.56, 0.56, 0.7 )
margin_left = 14.0
margin_top = 43.0
margin_right = 14.0
margin_bottom = 43.0
rect_min_size = Vector2( 4, 8 )
