; Engine configuration file.
; It's best edited using the editor UI and not directly,
; since the parameters that go here are not all obvious.
;
; Format:
;   [section] ; section goes between []
;   param=value ; assign values to parameters

config_version=4

_global_script_classes=[ {
"base": "Object",
"class": "GltfParse",
"language": "GDScript",
"path": "res://uvpacker/GltfParse.gd"
}, {
"base": "Object",
"class": "ObjParse",
"language": "GDScript",
"path": "res://uvpacker/ObjParse.gd"
}, {
"base": "Control",
"class": "UVPack",
"language": "GDScript",
"path": "res://uvpacker/UVPack.gd"
} ]
_global_script_class_icons={
"GltfParse": "",
"ObjParse": "",
"UVPack": ""
}

[application]

config/name="Lightmapper"
run/main_scene="res://Main.tscn"
config/icon="res://icon.png"

[physics]

common/enable_pause_aware_picking=true

[rendering]

quality/driver/driver_name="GLES2"
vram_compression/import_etc=true
vram_compression/import_etc2=false
quality/filters/msaa=3
environment/default_environment="res://default_env.tres"
